{
  "formatVersion": 1,
  "database": {
    "version": 1,
    "identityHash": "479edc8f82288d5e8803f1960cd55eb9",
    "entities": [
      {
        "tableName": "token",
        "createSql": "CREATE TABLE IF NOT EXISTS `${TABLE_NAME}` (`roomId` INTEGER PRIMARY KEY AUTOINCREMENT NOT NULL, `access_token` TEXT, `expiration` INTEGER NOT NULL)",
        "fields": [
          {
            "fieldPath": "roomId",
            "columnName": "roomId",
            "affinity": "INTEGER",
            "notNull": true
          },
          {
            "fieldPath": "accessToken",
            "columnName": "access_token",
            "affinity": "TEXT",
            "notNull": false
          },
          {
            "fieldPath": "expiration",
            "columnName": "expiration",
            "affinity": "INTEGER",
            "notNull": true
          }
        ],
        "primaryKey": {
          "columnNames": [
            "roomId"
          ],
          "autoGenerate": true
        },
        "indices": [],
        "foreignKeys": []
      },
      {
        "tableName": "highlights",
        "createSql": "CREATE TABLE IF NOT EXISTS `${TABLE_NAME}` (`highlight` TEXT NOT NULL, `game_list` TEXT, PRIMARY KEY(`highlight`))",
        "fields": [
          {
            "fieldPath": "highlight",
            "columnName": "highlight",
            "affinity": "TEXT",
            "notNull": true
          },
          {
            "fieldPath": "gameList",
            "columnName": "game_list",
            "affinity": "TEXT",
            "notNull": false
          }
        ],
        "primaryKey": {
          "columnNames": [
            "highlight"
          ],
          "autoGenerate": false
        },
        "indices": [],
        "foreignKeys": []
      }
    ],
    "views": [],
    "setupQueries": [
      "CREATE TABLE IF NOT EXISTS room_master_table (id INTEGER PRIMARY KEY,identity_hash TEXT)",
      "INSERT OR REPLACE INTO room_master_table (id,identity_hash) VALUES(42, '479edc8f82288d5e8803f1960cd55eb9')"
    ]
  }
}